# Blender v2.79 (sub 7) OBJ File: ''
# www.blender.org
o Cone
v -2.252484 6.522981 -0.687097
v -2.057394 6.522981 -0.667882
v -1.869801 6.522981 -0.610976
v -1.696914 6.522981 -0.518566
v -1.545377 6.522981 -0.394203
v -1.421015 6.522981 -0.242667
v -1.328605 6.522981 -0.069780
v -1.271699 6.522981 0.117813
v -1.252484 6.522981 0.312903
v -1.271699 6.522981 0.507994
v -1.328605 6.522981 0.695587
v -1.421015 6.522981 0.868474
v -1.545377 6.522981 1.020010
v -1.696914 6.522981 1.144373
v -1.869801 6.522981 1.236783
v -2.057394 6.522981 1.293689
v -2.252485 6.522981 1.312903
v -2.447575 6.522981 1.293689
v -2.635168 6.522981 1.236783
v -2.808055 6.522981 1.144373
v -2.959592 6.522981 1.020010
v -3.083954 6.522981 0.868473
v -3.176364 6.522981 0.695586
v -2.252484 8.522981 0.312903
v -3.233270 6.522981 0.507993
v -3.252484 6.522981 0.312902
v -3.233269 6.522981 0.117812
v -3.176363 6.522981 -0.069781
v -3.083953 6.522981 -0.242668
v -2.959590 6.522981 -0.394204
v -2.808053 6.522981 -0.518567
v -2.635166 6.522981 -0.610977
v -2.447573 6.522981 -0.667882
vn 0.0878 0.4455 -0.8910
vn 0.2599 0.4455 -0.8567
vn 0.4220 0.4455 -0.7896
vn 0.5680 0.4455 -0.6921
vn 0.6921 0.4455 -0.5680
vn 0.7896 0.4455 -0.4220
vn 0.8567 0.4455 -0.2599
vn 0.8910 0.4455 -0.0878
vn 0.8910 0.4455 0.0878
vn 0.8567 0.4455 0.2599
vn 0.7896 0.4455 0.4220
vn 0.6921 0.4455 0.5680
vn 0.5680 0.4455 0.6921
vn 0.4220 0.4455 0.7896
vn 0.2599 0.4455 0.8567
vn 0.0878 0.4455 0.8910
vn -0.0878 0.4455 0.8910
vn -0.2599 0.4455 0.8567
vn -0.4220 0.4455 0.7896
vn -0.5680 0.4455 0.6921
vn -0.6921 0.4455 0.5680
vn -0.7896 0.4455 0.4220
vn -0.8567 0.4455 0.2599
vn -0.8910 0.4455 0.0878
vn -0.8910 0.4455 -0.0878
vn -0.8567 0.4455 -0.2599
vn -0.7896 0.4455 -0.4220
vn -0.6921 0.4455 -0.5680
vn -0.5680 0.4455 -0.6921
vn -0.4220 0.4455 -0.7896
vn -0.2599 0.4455 -0.8567
vn -0.0878 0.4455 -0.8910
vn 0.0000 -1.0000 0.0000
s off
f 1//1 24//1 2//1
f 2//2 24//2 3//2
f 3//3 24//3 4//3
f 4//4 24//4 5//4
f 5//5 24//5 6//5
f 6//6 24//6 7//6
f 7//7 24//7 8//7
f 8//8 24//8 9//8
f 9//9 24//9 10//9
f 10//10 24//10 11//10
f 11//11 24//11 12//11
f 12//12 24//12 13//12
f 13//13 24//13 14//13
f 14//14 24//14 15//14
f 15//15 24//15 16//15
f 16//16 24//16 17//16
f 17//17 24//17 18//17
f 18//18 24//18 19//18
f 19//19 24//19 20//19
f 20//20 24//20 21//20
f 21//21 24//21 22//21
f 22//22 24//22 23//22
f 23//23 24//23 25//23
f 25//24 24//24 26//24
f 26//25 24//25 27//25
f 27//26 24//26 28//26
f 28//27 24//27 29//27
f 29//28 24//28 30//28
f 30//29 24//29 31//29
f 31//30 24//30 32//30
f 32//31 24//31 33//31
f 33//32 24//32 1//32
f 8//33 16//33 25//33
f 33//33 1//33 2//33
f 2//33 3//33 4//33
f 4//33 5//33 6//33
f 6//33 7//33 4//33
f 7//33 8//33 4//33
f 8//33 9//33 10//33
f 10//33 11//33 8//33
f 11//33 12//33 8//33
f 12//33 13//33 16//33
f 13//33 14//33 16//33
f 14//33 15//33 16//33
f 16//33 17//33 18//33
f 18//33 19//33 20//33
f 20//33 21//33 25//33
f 21//33 22//33 25//33
f 22//33 23//33 25//33
f 25//33 26//33 27//33
f 27//33 28//33 29//33
f 29//33 30//33 31//33
f 31//33 32//33 33//33
f 33//33 2//33 4//33
f 16//33 18//33 25//33
f 18//33 20//33 25//33
f 25//33 27//33 33//33
f 27//33 29//33 33//33
f 29//33 31//33 33//33
f 33//33 4//33 8//33
f 8//33 12//33 16//33
f 33//33 8//33 25//33
